                 _                                 
__      __  ___ | |__           __ _  _ __   _ __  
\ \ /\ / / / _ \| '_ \  _____  / _` || '_ \ | '_ \ 
 \ V  V / |  __/| |_) ||_____|| (_| || |_) || |_) |
  \_/\_/   \___||_.__/         \__,_|| .__/ | .__/ 
                                     |_|    |_|    
